…
      jo <- arrange(jo, Time_cat)
    }

Then, all my friend is needed to do is define the samples number range
and the path to where the samples files are located and she gets a data
frame that has all she needed.

    source("chels_fun.R") #load the function
    start<-744 #the first sample number
    end<-747 #the last sample number
    path <-("Sample data/")# the location of the sample folders (not including the sample folders themselfs!)
    dat <- chels_fun(start,end,path)
    dat #print the results (this will print only the first 10 lines, since it is a dplyr tbl_df data frame)

    ## # A tibble: 89 × 9
    ##    Time_cat  Area.744 RetTime.744  Area.745 RetTime.745  Area.746
    ##       <dbl>     <dbl>       <dbl>     <dbl>       <dbl>     <dbl>
    ## 1      3.10  3.101069  2377.08057        NA          NA        NA
    ## 2      3.11        NA          NA  3.107622  4209.79785  3.107622
    ## 3      3.53  3.530716  1104.51636        NA          NA        NA
    ## 4     11.31 11.308692   615.69073 11.310547   778.59448 11.310547
    ## 5     11.83        NA          NA 11.828438    45.81472 11.828438
    ## 6     12.06        NA          NA 12.063776    31.54520 12.063776
    ## 7     12.30 12.299639    56.99836 12.299285   104.39632 12.299285
    ## 8     12.88 12.876271   593.87915 12.881848  1022.73517 12.881848
    ## 9     14.02 14.019990  2511.21509        NA          NA        NA
    ## 10    14.05        NA          NA 14.050228  4456.63818 14.050228
    ## # ... with 79 more rows, and 3 more variables: RetTime.746 <dbl>,
    ## #   Area.747 <dbl>, RetTime.747 <dbl>
…
